../Core/Src/syscalls.c:43:6:initialise_monitor_handles	4	static
../Core/Src/syscalls.c:47:5:_getpid	4	static
../Core/Src/syscalls.c:52:5:_kill	16	static
../Core/Src/syscalls.c:58:6:_exit	16	static
../Core/Src/syscalls.c:64:27:_read	32	static
../Core/Src/syscalls.c:76:27:_write	32	static
../Core/Src/syscalls.c:87:5:_close	16	static
../Core/Src/syscalls.c:93:5:_fstat	16	static
../Core/Src/syscalls.c:99:5:_isatty	16	static
../Core/Src/syscalls.c:104:5:_lseek	24	static
../Core/Src/syscalls.c:109:5:_open	12	static
../Core/Src/syscalls.c:115:5:_wait	16	static
../Core/Src/syscalls.c:121:5:_unlink	16	static
../Core/Src/syscalls.c:127:5:_times	16	static
../Core/Src/syscalls.c:132:5:_stat	16	static
../Core/Src/syscalls.c:138:5:_link	16	static
../Core/Src/syscalls.c:144:5:_fork	8	static
../Core/Src/syscalls.c:150:5:_execve	24	static
